{
  "profile": {
    "provider": "flickr",
    "id": "131564403@N08",
    "displayName": "czmanea",
    "fullName": "Cezar Manea"
  },
  "photos": {
    "page": 1,
    "pages": 35812,
    "perpage": 25,
    "total": "895286",
    "photo": [
      {
        "id": "17211447428",
        "owner": "90967527@N06",
        "secret": "a3b85b8243",
        "server": "8829",
        "farm": 9,
        "title": "Audi RS6 B8 Avant Quattro",
        "ispublic": 1,
        "isfriend": 0,
        "isfamily": 0,
        "ownername": "Diego Castañeira Hidalgo",
        "url_q": "https://farm9.staticflickr.com/8829/17211447428_a3b85b8243_q.jpg",
        "height_q": "150",
        "width_q": "150",
        "url_z": "https://farm9.staticflickr.com/8829/17211447428_a3b85b8243_z.jpg",
        "height_z": "640",
        "width_z": "640"
      },
      {
        "id": "17373223056",
        "owner": "40393219@N07",
        "secret": "394c79af95",
        "server": "8835",
        "farm": 9,
        "title": "AudiPK_Martin_Black_0509",
        "ispublic": 1,
        "isfriend": 0,
        "isfamily": 0,
        "ownername": "Martin@Martin-Black.de",
        "url_q": "https://farm9.staticflickr.com/8835/17373223056_394c79af95_q.jpg",
        "height_q": "150",
        "width_q": "150",
        "url_z": "https://farm9.staticflickr.com/8835/17373223056_394c79af95_z.jpg",
        "height_z": "426",
        "width_z": "640"
      },
      {
        "id": "17211323858",
        "owner": "121030716@N06",
        "secret": "85b9246e38",
        "server": "7741",
        "farm": 8,
        "title": "AUDI R8GT",
        "ispublic": 1,
        "isfriend": 0,
        "isfamily": 0,
        "ownername": "Falcon09761",
        "url_q": "https://farm8.staticflickr.com/7741/17211323858_85b9246e38_q.jpg",
        "height_q": "150",
        "width_q": "150",
        "url_z": "https://farm8.staticflickr.com/7741/17211323858_85b9246e38_z.jpg",
        "height_z": "360",
        "width_z": "640"
      },
      {
        "id": "17212899679",
        "owner": "121030716@N06",
        "secret": "32494e9c64",
        "server": "5345",
        "farm": 6,
        "title": "Audi R8 4k (2)",
        "ispublic": 1,
        "isfriend": 0,
        "isfamily": 0,
        "ownername": "Falcon09761",
        "url_q": "https://farm6.staticflickr.com/5345/17212899679_32494e9c64_q.jpg",
        "height_q": "150",
        "width_q": "150",
        "url_z": "https://farm6.staticflickr.com/5345/17212899679_32494e9c64_z.jpg",
        "height_z": "360",
        "width_z": "640"
      },
      {
        "id": "17191655647",
        "owner": "121030716@N06",
        "secret": "43410f1246",
        "server": "7780",
        "farm": 8,
        "title": "Audi R8 Black (2)",
        "ispublic": 1,
        "isfriend": 0,
        "isfamily": 0,
        "ownername": "Falcon09761",
        "url_q": "https://farm8.staticflickr.com/7780/17191655647_43410f1246_q.jpg",
        "height_q": "150",
        "width_q": "150",
        "url_z": "https://farm8.staticflickr.com/7780/17191655647_43410f1246_z.jpg",
        "height_z": "360",
        "width_z": "640"
      },
      {
        "id": "16776587864",
        "owner": "121030716@N06",
        "secret": "59c885b85b",
        "server": "7723",
        "farm": 8,
        "title": "Audi R8 Black",
        "ispublic": 1,
        "isfriend": 0,
        "isfamily": 0,
        "ownername": "Falcon09761",
        "url_q": "https://farm8.staticflickr.com/7723/16776587864_59c885b85b_q.jpg",
        "height_q": "150",
        "width_q": "150",
        "url_z": "https://farm8.staticflickr.com/7723/16776587864_59c885b85b_z.jpg",
        "height_z": "360",
        "width_z": "640"
      },
      {
        "id": "17212899199",
        "owner": "121030716@N06",
        "secret": "2166afe4c5",
        "server": "8776",
        "farm": 9,
        "title": "Audi R8",
        "ispublic": 1,
        "isfriend": 0,
        "isfamily": 0,
        "ownername": "Falcon09761",
        "url_q": "https://farm9.staticflickr.com/8776/17212899199_2166afe4c5_q.jpg",
        "height_q": "150",
        "width_q": "150",
        "url_z": "https://farm9.staticflickr.com/8776/17212899199_2166afe4c5_z.jpg",
        "height_z": "360",
        "width_z": "640"
      },
      {
        "id": "16778832413",
        "owner": "121030716@N06",
        "secret": "09337f2654",
        "server": "7750",
        "farm": 8,
        "title": "Audi R8 4k (3)",
        "ispublic": 1,
        "isfriend": 0,
        "isfamily": 0,
        "ownername": "Falcon09761",
        "url_q": "https://farm8.staticflickr.com/7750/16778832413_09337f2654_q.jpg",
        "height_q": "150",
        "width_q": "150",
        "url_z": "https://farm8.staticflickr.com/7750/16778832413_09337f2654_z.jpg",
        "height_z": "360",
        "width_z": "640"
      },
      {
        "id": "17191655127",
        "owner": "121030716@N06",
        "secret": "39951e09e6",
        "server": "8762",
        "farm": 9,
        "title": "Audi R8 4k",
        "ispublic": 1,
        "isfriend": 0,
        "isfamily": 0,
        "ownername": "Falcon09761",
        "url_q": "https://farm9.staticflickr.com/8762/17191655127_39951e09e6_q.jpg",
        "height_q": "150",
        "width_q": "150",
        "url_z": "https://farm9.staticflickr.com/8762/17191655127_39951e09e6_z.jpg",
        "height_z": "360",
        "width_z": "640"
      },
      {
        "id": "17212727919",
        "owner": "132206133@N08",
        "secret": "c0020a13b9",
        "server": "7740",
        "farm": 8,
        "title": "Audi R8 GT",
        "ispublic": 1,
        "isfriend": 0,
        "isfamily": 0,
        "ownername": "HQ Photography",
        "url_q": "https://farm8.staticflickr.com/7740/17212727919_c0020a13b9_q.jpg",
        "height_q": "150",
        "width_q": "150",
        "url_z": "https://farm8.staticflickr.com/7740/17212727919_c0020a13b9_z.jpg",
        "height_z": "427",
        "width_z": "640"
      },
      {
        "id": "16778256893",
        "owner": "13124075@N03",
        "secret": "a497df2413",
        "server": "8705",
        "farm": 9,
        "title": "Light Painting - Audi Q3",
        "ispublic": 1,
        "isfriend": 0,
        "isfamily": 0,
        "ownername": "Rajasekar Alamanda",
        "url_q": "https://farm9.staticflickr.com/8705/16778256893_a497df2413_q.jpg",
        "height_q": "150",
        "width_q": "150",
        "url_z": "https://farm9.staticflickr.com/8705/16778256893_a497df2413_z.jpg",
        "height_z": "427",
        "width_z": "640"
      },
      {
        "id": "17398544085",
        "owner": "13124075@N03",
        "secret": "f9e2958ef8",
        "server": "7704",
        "farm": 8,
        "title": "Light Painting - Audi Q3",
        "ispublic": 1,
        "isfriend": 0,
        "isfamily": 0,
        "ownername": "Rajasekar Alamanda",
        "url_q": "https://farm8.staticflickr.com/7704/17398544085_f9e2958ef8_q.jpg",
        "height_q": "150",
        "width_q": "150",
        "url_z": "https://farm8.staticflickr.com/7704/17398544085_f9e2958ef8_z.jpg",
        "height_z": "480",
        "width_z": "640"
      },
      {
        "id": "16778252453",
        "owner": "13124075@N03",
        "secret": "096662756d",
        "server": "7795",
        "farm": 8,
        "title": "Light Painting - Audi Q3",
        "ispublic": 1,
        "isfriend": 0,
        "isfamily": 0,
        "ownername": "Rajasekar Alamanda",
        "url_q": "https://farm8.staticflickr.com/7795/16778252453_096662756d_q.jpg",
        "height_q": "150",
        "width_q": "150",
        "url_z": "https://farm8.staticflickr.com/7795/16778252453_096662756d_z.jpg",
        "height_z": "427",
        "width_z": "640"
      },
      {
        "id": "17396506322",
        "owner": "48698492@N05",
        "secret": "7f34fc63c8",
        "server": "8791",
        "farm": 9,
        "title": "Audi B4 A4 Avant",
        "ispublic": 1,
        "isfriend": 0,
        "isfamily": 0,
        "ownername": "cds488",
        "url_q": "https://farm9.staticflickr.com/8791/17396506322_7f34fc63c8_q.jpg",
        "height_q": "150",
        "width_q": "150",
        "url_z": "https://farm9.staticflickr.com/8791/17396506322_7f34fc63c8_z.jpg",
        "height_z": "426",
        "width_z": "640"
      },
      {
        "id": "17398473785",
        "owner": "48698492@N05",
        "secret": "f1d6d1b88a",
        "server": "7711",
        "farm": 8,
        "title": "Audi A5",
        "ispublic": 1,
        "isfriend": 0,
        "isfamily": 0,
        "ownername": "cds488",
        "url_q": "https://farm8.staticflickr.com/7711/17398473785_f1d6d1b88a_q.jpg",
        "height_q": "150",
        "width_q": "150",
        "url_z": "https://farm8.staticflickr.com/7711/17398473785_f1d6d1b88a_z.jpg",
        "height_z": "427",
        "width_z": "640"
      },
      {
        "id": "17372409596",
        "owner": "26982917@N02",
        "secret": "35a5268bf4",
        "server": "7711",
        "farm": 8,
        "title": "Audi, A6 Avant, Hong Kong",
        "ispublic": 1,
        "isfriend": 0,
        "isfamily": 0,
        "ownername": "Daryl Chapman Photography",
        "url_q": "https://farm8.staticflickr.com/7711/17372409596_35a5268bf4_q.jpg",
        "height_q": "150",
        "width_q": "150",
        "url_z": "https://farm8.staticflickr.com/7711/17372409596_35a5268bf4_z.jpg",
        "height_z": "428",
        "width_z": "640"
      },
      {
        "id": "17372393336",
        "owner": "99339395@N02",
        "secret": "f9ac9136c2",
        "server": "7758",
        "farm": 8,
        "title": "NG85TR_1",
        "ispublic": 1,
        "isfriend": 0,
        "isfamily": 0,
        "ownername": "botepieter",
        "url_q": "https://farm8.staticflickr.com/7758/17372393336_f9ac9136c2_q.jpg",
        "height_q": "150",
        "width_q": "150",
        "url_z": "https://farm8.staticflickr.com/7758/17372393336_f9ac9136c2_z.jpg",
        "height_z": "480",
        "width_z": "640"
      },
      {
        "id": "17190916047",
        "owner": "99339395@N02",
        "secret": "327bf18fe1",
        "server": "8695",
        "farm": 9,
        "title": "NG85TR_2",
        "ispublic": 1,
        "isfriend": 0,
        "isfamily": 0,
        "ownername": "botepieter",
        "url_q": "https://farm9.staticflickr.com/8695/17190916047_327bf18fe1_q.jpg",
        "height_q": "150",
        "width_q": "150",
        "url_z": "https://farm9.staticflickr.com/8695/17190916047_327bf18fe1_z.jpg",
        "height_z": "480",
        "width_z": "640"
      },
      {
        "id": "17398001921",
        "owner": "99339395@N02",
        "secret": "64a77557db",
        "server": "8883",
        "farm": 9,
        "title": "NG85TR",
        "ispublic": 1,
        "isfriend": 0,
        "isfamily": 0,
        "ownername": "botepieter",
        "url_q": "https://farm9.staticflickr.com/8883/17398001921_64a77557db_q.jpg",
        "height_q": "150",
        "width_q": "150",
        "url_z": "https://farm9.staticflickr.com/8883/17398001921_64a77557db_z.jpg",
        "height_z": "480",
        "width_z": "640"
      },
      {
        "id": "16775782784",
        "owner": "126106959@N04",
        "secret": "d09a4687c1",
        "server": "7754",
        "farm": 8,
        "title": "automotivated: Audi R8 by Rieger (by fourcross)",
        "ispublic": 1,
        "isfriend": 0,
        "isfamily": 0,
        "ownername": "maxime_l@hotmail.com",
        "url_q": "https://farm8.staticflickr.com/7754/16775782784_d09a4687c1_q.jpg",
        "height_q": "150",
        "width_q": "150"
      },
      {
        "id": "17371255546",
        "owner": "30324026@N02",
        "secret": "986d2be917",
        "server": "7759",
        "farm": 8,
        "title": "2015 AUDI R-8",
        "ispublic": 1,
        "isfriend": 0,
        "isfamily": 0,
        "ownername": "rjgivnin Sr",
        "url_q": "https://farm8.staticflickr.com/7759/17371255546_986d2be917_q.jpg",
        "height_q": "150",
        "width_q": "150",
        "url_z": "https://farm8.staticflickr.com/7759/17371255546_986d2be917_z.jpg",
        "height_z": "480",
        "width_z": "640"
      },
      {
        "id": "17397233575",
        "owner": "30324026@N02",
        "secret": "3fc73bafb7",
        "server": "7786",
        "farm": 8,
        "title": "V-8 under glass",
        "ispublic": 1,
        "isfriend": 0,
        "isfamily": 0,
        "ownername": "rjgivnin Sr",
        "url_q": "https://farm8.staticflickr.com/7786/17397233575_3fc73bafb7_q.jpg",
        "height_q": "150",
        "width_q": "150",
        "url_z": "https://farm8.staticflickr.com/7786/17397233575_3fc73bafb7_z.jpg",
        "height_z": "480",
        "width_z": "640"
      },
      {
        "id": "17397096655",
        "owner": "66393010@N08",
        "secret": "0d7949699f",
        "server": "8852",
        "farm": 9,
        "title": "2014 TUSC Continental Tire Road Race Showcase (Practice and Qualifying) - Lizard Parade",
        "ispublic": 1,
        "isfriend": 0,
        "isfamily": 0,
        "ownername": "JRB_EVO",
        "url_q": "https://farm9.staticflickr.com/8852/17397096655_0d7949699f_q.jpg",
        "height_q": "150",
        "width_q": "150",
        "url_z": "https://farm9.staticflickr.com/8852/17397096655_0d7949699f_z.jpg",
        "height_z": "387",
        "width_z": "640"
      },
      {
        "id": "16774529394",
        "owner": "17600001@N08",
        "secret": "9d1f52892c",
        "server": "8829",
        "farm": 9,
        "title": "2013 Audi S4",
        "ispublic": 1,
        "isfriend": 0,
        "isfamily": 0,
        "ownername": "splattergraphics",
        "url_q": "https://farm9.staticflickr.com/8829/16774529394_9d1f52892c_q.jpg",
        "height_q": "150",
        "width_q": "150",
        "url_z": "https://farm9.staticflickr.com/8829/16774529394_9d1f52892c_z.jpg",
        "height_z": "480",
        "width_z": "640"
      },
      {
        "id": "17396927815",
        "owner": "127842361@N02",
        "secret": "a0d5e8e4a0",
        "server": "7682",
        "farm": 8,
        "title": "V10",
        "ispublic": 1,
        "isfriend": 0,
        "isfamily": 0,
        "ownername": "benjamin.bastias",
        "url_q": "https://farm8.staticflickr.com/7682/17396927815_a0d5e8e4a0_q.jpg",
        "height_q": "150",
        "width_q": "150",
        "url_z": "https://farm8.staticflickr.com/7682/17396927815_a0d5e8e4a0_z.jpg",
        "height_z": "413",
        "width_z": "640"
      }
    ]
  }
}