{
  "profile": {
    "provider": "flickr",
    "id": "132254845@N04",
    "displayName": "dhutanu27",
    "fullName": "dan hutanu"
  },
  "photos": {
    "page": 1,
    "pages": 23015,
    "perpage": 25,
    "total": "575362",
    "photo": [
      {
        "id": "17369006156",
        "owner": "130026328@N03",
        "secret": "3acb5f1ed4",
        "server": "7766",
        "farm": 8,
        "title": "⚽️ #madrid #estadiobernabeu #sightseeing #sun #fun #vacation #girlsgirlsgirls",
        "ispublic": 1,
        "isfriend": 0,
        "isfamily": 0,
        "ownername": "charliecun",
        "url_q": "https://farm8.staticflickr.com/7766/17369006156_3acb5f1ed4_q.jpg",
        "height_q": "150",
        "width_q": "150",
        "url_z": "https://farm8.staticflickr.com/7766/17369006156_3acb5f1ed4_z.jpg",
        "height_z": "640",
        "width_z": "640"
      },
      {
        "id": "16772450294",
        "owner": "64114514@N06",
        "secret": "21a83cccb4",
        "server": "7660",
        "farm": 8,
        "title": "ONEONTA",
        "ispublic": 1,
        "isfriend": 0,
        "isfamily": 0,
        "ownername": "Joe Schneid",
        "url_q": "https://farm8.staticflickr.com/7660/16772450294_21a83cccb4_q.jpg",
        "height_q": "150",
        "width_q": "150",
        "url_z": "https://farm8.staticflickr.com/7660/16772450294_21a83cccb4_z.jpg",
        "height_z": "424",
        "width_z": "640"
      },
      {
        "id": "17187501737",
        "owner": "101657975@N07",
        "secret": "8ca02d5713",
        "server": "7720",
        "farm": 8,
        "title": "#fcbarcelona #Barcelona #Barça #roadtoberlin #fcb #Catalunya #Catalonia #football #soccer #ucl #championsleague #uefachampionsleague #バルセロナ #ベルリンへの道 #カタロニア #カタルーニャ #サッカー #サッカー",
        "ispublic": 1,
        "isfriend": 0,
        "isfamily": 0,
        "ownername": "r_vilalta",
        "url_q": "https://farm8.staticflickr.com/7720/17187501737_8ca02d5713_q.jpg",
        "height_q": "150",
        "width_q": "150",
        "url_z": "https://farm8.staticflickr.com/7720/17187501737_8ca02d5713_z.jpg",
        "height_z": "640",
        "width_z": "640"
      },
      {
        "id": "17208711679",
        "owner": "65583109@N00",
        "secret": "4c13b4976d",
        "server": "7722",
        "farm": 8,
        "title": "2014-09-25-010",
        "ispublic": 1,
        "isfriend": 0,
        "isfamily": 0,
        "ownername": "chris-bo",
        "url_q": "https://farm8.staticflickr.com/7722/17208711679_4c13b4976d_q.jpg",
        "height_q": "150",
        "width_q": "150",
        "url_z": "https://farm8.staticflickr.com/7722/17208711679_4c13b4976d_z.jpg",
        "height_z": "480",
        "width_z": "640"
      },
      {
        "id": "17187480807",
        "owner": "65583109@N00",
        "secret": "16e592fc6d",
        "server": "7794",
        "farm": 8,
        "title": "2014-09-25-008",
        "ispublic": 1,
        "isfriend": 0,
        "isfamily": 0,
        "ownername": "chris-bo",
        "url_q": "https://farm8.staticflickr.com/7794/17187480807_16e592fc6d_q.jpg",
        "height_q": "150",
        "width_q": "150",
        "url_z": "https://farm8.staticflickr.com/7794/17187480807_16e592fc6d_z.jpg",
        "height_z": "480",
        "width_z": "640"
      },
      {
        "id": "17368952706",
        "owner": "65583109@N00",
        "secret": "86ce08d82a",
        "server": "7773",
        "farm": 8,
        "title": "2014-09-25-004",
        "ispublic": 1,
        "isfriend": 0,
        "isfamily": 0,
        "ownername": "chris-bo",
        "url_q": "https://farm8.staticflickr.com/7773/17368952706_86ce08d82a_q.jpg",
        "height_q": "150",
        "width_q": "150",
        "url_z": "https://farm8.staticflickr.com/7773/17368952706_86ce08d82a_z.jpg",
        "height_z": "480",
        "width_z": "640"
      },
      {
        "id": "17207345730",
        "owner": "65583109@N00",
        "secret": "d2dcf36165",
        "server": "8718",
        "farm": 9,
        "title": "2014-09-25-001a",
        "ispublic": 1,
        "isfriend": 0,
        "isfamily": 0,
        "ownername": "chris-bo",
        "url_q": "https://farm9.staticflickr.com/8718/17207345730_d2dcf36165_q.jpg",
        "height_q": "150",
        "width_q": "150",
        "url_z": "https://farm9.staticflickr.com/8718/17207345730_d2dcf36165_z.jpg",
        "height_z": "450",
        "width_z": "640"
      },
      {
        "id": "17368950156",
        "owner": "62623570@N03",
        "secret": "220c2f0a52",
        "server": "8826",
        "farm": 9,
        "title": "Con permiso #Neuer #UCL #Barcelona #Messi 🔴🔵⚽️",
        "ispublic": 1,
        "isfriend": 0,
        "isfamily": 0,
        "ownername": "W3iLaNd",
        "url_q": "https://farm9.staticflickr.com/8826/17368950156_220c2f0a52_q.jpg",
        "height_q": "150",
        "width_q": "150",
        "url_z": "https://farm9.staticflickr.com/8826/17368950156_220c2f0a52_z.jpg",
        "height_z": "640",
        "width_z": "640"
      },
      {
        "id": "17394909535",
        "owner": "131874877@N07",
        "secret": "626e69ee5b",
        "server": "8815",
        "farm": 9,
        "title": "#fcbarcelona 3-0 #neymar#messi#fcbarcelona#barcelona#great#match#football#soccer#messi#fans#3-0#amazing #score#1st#leg#f4f #followme #follow4follow #likeall #like4like #likeback",
        "ispublic": 1,
        "isfriend": 0,
        "isfamily": 0,
        "ownername": "melodyderm",
        "url_q": "https://farm9.staticflickr.com/8815/17394909535_626e69ee5b_q.jpg",
        "height_q": "150",
        "width_q": "150",
        "url_z": "https://farm9.staticflickr.com/8815/17394909535_626e69ee5b_z.jpg",
        "height_z": "640",
        "width_z": "640"
      },
      {
        "id": "17208693139",
        "owner": "65583109@N00",
        "secret": "49582dba78",
        "server": "5449",
        "farm": 6,
        "title": "2015-01-23-082",
        "ispublic": 1,
        "isfriend": 0,
        "isfamily": 0,
        "ownername": "chris-bo",
        "url_q": "https://farm6.staticflickr.com/5449/17208693139_49582dba78_q.jpg",
        "height_q": "150",
        "width_q": "150",
        "url_z": "https://farm6.staticflickr.com/5449/17208693139_49582dba78_z.jpg",
        "height_z": "480",
        "width_z": "640"
      },
      {
        "id": "16772389474",
        "owner": "65583109@N00",
        "secret": "1c31f0319d",
        "server": "8769",
        "farm": 9,
        "title": "2015-01-23-081",
        "ispublic": 1,
        "isfriend": 0,
        "isfamily": 0,
        "ownername": "chris-bo",
        "url_q": "https://farm9.staticflickr.com/8769/16772389474_1c31f0319d_q.jpg",
        "height_q": "150",
        "width_q": "150",
        "url_z": "https://farm9.staticflickr.com/8769/16772389474_1c31f0319d_z.jpg",
        "height_z": "480",
        "width_z": "640"
      },
      {
        "id": "17187461317",
        "owner": "65583109@N00",
        "secret": "23f9c96ee4",
        "server": "8772",
        "farm": 9,
        "title": "2015-01-23-079",
        "ispublic": 1,
        "isfriend": 0,
        "isfamily": 0,
        "ownername": "chris-bo",
        "url_q": "https://farm9.staticflickr.com/8772/17187461317_23f9c96ee4_q.jpg",
        "height_q": "150",
        "width_q": "150",
        "url_z": "https://farm9.staticflickr.com/8772/17187461317_23f9c96ee4_z.jpg",
        "height_z": "480",
        "width_z": "640"
      },
      {
        "id": "16772388694",
        "owner": "65583109@N00",
        "secret": "f46c6988d9",
        "server": "8875",
        "farm": 9,
        "title": "2015-01-23-071",
        "ispublic": 1,
        "isfriend": 0,
        "isfamily": 0,
        "ownername": "chris-bo",
        "url_q": "https://farm9.staticflickr.com/8875/16772388694_f46c6988d9_q.jpg",
        "height_q": "150",
        "width_q": "150",
        "url_z": "https://farm9.staticflickr.com/8875/16772388694_f46c6988d9_z.jpg",
        "height_z": "480",
        "width_z": "640"
      },
      {
        "id": "17394907715",
        "owner": "65583109@N00",
        "secret": "2d1c3e4760",
        "server": "7691",
        "farm": 8,
        "title": "2015-01-23-070",
        "ispublic": 1,
        "isfriend": 0,
        "isfamily": 0,
        "ownername": "chris-bo",
        "url_q": "https://farm8.staticflickr.com/7691/17394907715_2d1c3e4760_q.jpg",
        "height_q": "150",
        "width_q": "150",
        "url_z": "https://farm8.staticflickr.com/7691/17394907715_2d1c3e4760_z.jpg",
        "height_z": "480",
        "width_z": "640"
      },
      {
        "id": "17394543191",
        "owner": "65583109@N00",
        "secret": "4c9578aa3f",
        "server": "8719",
        "farm": 9,
        "title": "2015-01-23-068a",
        "ispublic": 1,
        "isfriend": 0,
        "isfamily": 0,
        "ownername": "chris-bo",
        "url_q": "https://farm9.staticflickr.com/8719/17394543191_4c9578aa3f_q.jpg",
        "height_q": "150",
        "width_q": "150",
        "url_z": "https://farm9.staticflickr.com/8719/17394543191_4c9578aa3f_z.jpg",
        "height_z": "528",
        "width_z": "640"
      },
      {
        "id": "17187460137",
        "owner": "65583109@N00",
        "secret": "799121f4c2",
        "server": "5350",
        "farm": 6,
        "title": "2015-01-23-067",
        "ispublic": 1,
        "isfriend": 0,
        "isfamily": 0,
        "ownername": "chris-bo",
        "url_q": "https://farm6.staticflickr.com/5350/17187460137_799121f4c2_q.jpg",
        "height_q": "150",
        "width_q": "150",
        "url_z": "https://farm6.staticflickr.com/5350/17187460137_799121f4c2_z.jpg",
        "height_z": "480",
        "width_z": "640"
      },
      {
        "id": "17368932826",
        "owner": "65583109@N00",
        "secret": "ee626db856",
        "server": "7672",
        "farm": 8,
        "title": "2015-01-23-057",
        "ispublic": 1,
        "isfriend": 0,
        "isfamily": 0,
        "ownername": "chris-bo",
        "url_q": "https://farm8.staticflickr.com/7672/17368932826_ee626db856_q.jpg",
        "height_q": "150",
        "width_q": "150",
        "url_z": "https://farm8.staticflickr.com/7672/17368932826_ee626db856_z.jpg",
        "height_z": "480",
        "width_z": "640"
      },
      {
        "id": "16774631753",
        "owner": "65583109@N00",
        "secret": "1184cdc139",
        "server": "7754",
        "farm": 8,
        "title": "2015-01-23-051",
        "ispublic": 1,
        "isfriend": 0,
        "isfamily": 0,
        "ownername": "chris-bo",
        "url_q": "https://farm8.staticflickr.com/7754/16774631753_1184cdc139_q.jpg",
        "height_q": "150",
        "width_q": "150",
        "url_z": "https://farm8.staticflickr.com/7754/16774631753_1184cdc139_z.jpg",
        "height_z": "480",
        "width_z": "640"
      },
      {
        "id": "17394540951",
        "owner": "65583109@N00",
        "secret": "6f9fd610f7",
        "server": "8852",
        "farm": 9,
        "title": "2015-01-23-050",
        "ispublic": 1,
        "isfriend": 0,
        "isfamily": 0,
        "ownername": "chris-bo",
        "url_q": "https://farm9.staticflickr.com/8852/17394540951_6f9fd610f7_q.jpg",
        "height_q": "150",
        "width_q": "150",
        "url_z": "https://farm9.staticflickr.com/8852/17394540951_6f9fd610f7_z.jpg",
        "height_z": "640",
        "width_z": "480"
      },
      {
        "id": "16774630533",
        "owner": "65583109@N00",
        "secret": "9ffabba9f1",
        "server": "5344",
        "farm": 6,
        "title": "2015-01-23-047",
        "ispublic": 1,
        "isfriend": 0,
        "isfamily": 0,
        "ownername": "chris-bo",
        "url_q": "https://farm6.staticflickr.com/5344/16774630533_9ffabba9f1_q.jpg",
        "height_q": "150",
        "width_q": "150",
        "url_z": "https://farm6.staticflickr.com/5344/16774630533_9ffabba9f1_z.jpg",
        "height_z": "480",
        "width_z": "640"
      },
      {
        "id": "17187457017",
        "owner": "65583109@N00",
        "secret": "0502998db2",
        "server": "7670",
        "farm": 8,
        "title": "2015-01-23-041",
        "ispublic": 1,
        "isfriend": 0,
        "isfamily": 0,
        "ownername": "chris-bo",
        "url_q": "https://farm8.staticflickr.com/7670/17187457017_0502998db2_q.jpg",
        "height_q": "150",
        "width_q": "150",
        "url_z": "https://farm8.staticflickr.com/7670/17187457017_0502998db2_z.jpg",
        "height_z": "480",
        "width_z": "640"
      },
      {
        "id": "17207323710",
        "owner": "65583109@N00",
        "secret": "c24c1695f8",
        "server": "7661",
        "farm": 8,
        "title": "2015-01-23-036",
        "ispublic": 1,
        "isfriend": 0,
        "isfamily": 0,
        "ownername": "chris-bo",
        "url_q": "https://farm8.staticflickr.com/7661/17207323710_c24c1695f8_q.jpg",
        "height_q": "150",
        "width_q": "150",
        "url_z": "https://farm8.staticflickr.com/7661/17207323710_c24c1695f8_z.jpg",
        "height_z": "480",
        "width_z": "640"
      },
      {
        "id": "16772383864",
        "owner": "65583109@N00",
        "secret": "69f369235d",
        "server": "8868",
        "farm": 9,
        "title": "2015-01-23-032",
        "ispublic": 1,
        "isfriend": 0,
        "isfamily": 0,
        "ownername": "chris-bo",
        "url_q": "https://farm9.staticflickr.com/8868/16772383864_69f369235d_q.jpg",
        "height_q": "150",
        "width_q": "150",
        "url_z": "https://farm9.staticflickr.com/8868/16772383864_69f369235d_z.jpg",
        "height_z": "480",
        "width_z": "640"
      },
      {
        "id": "17394539061",
        "owner": "65583109@N00",
        "secret": "95b1775654",
        "server": "7708",
        "farm": 8,
        "title": "2015-01-23-030a",
        "ispublic": 1,
        "isfriend": 0,
        "isfamily": 0,
        "ownername": "chris-bo",
        "url_q": "https://farm8.staticflickr.com/7708/17394539061_95b1775654_q.jpg",
        "height_q": "150",
        "width_q": "150",
        "url_z": "https://farm8.staticflickr.com/7708/17394539061_95b1775654_z.jpg",
        "height_z": "416",
        "width_z": "640"
      },
      {
        "id": "17208686949",
        "owner": "65583109@N00",
        "secret": "1edf35502b",
        "server": "7744",
        "farm": 8,
        "title": "2015-01-23-026",
        "ispublic": 1,
        "isfriend": 0,
        "isfamily": 0,
        "ownername": "chris-bo",
        "url_q": "https://farm8.staticflickr.com/7744/17208686949_1edf35502b_q.jpg",
        "height_q": "150",
        "width_q": "150",
        "url_z": "https://farm8.staticflickr.com/7744/17208686949_1edf35502b_z.jpg",
        "height_z": "480",
        "width_z": "640"
      }
    ]
  }
}