{
  "profile": {
    "provider": "flickr",
    "id": "43811363@N07",
    "displayName": "scenusa",
    "fullName": "Ștefan Cenușă"
  },
  "photos": {
    "page": 1,
    "pages": 35833,
    "perpage": 25,
    "total": "895806",
    "photo": [
      {
        "id": "17394513521",
        "owner": "129913138@N06",
        "secret": "ec6a7f3d49",
        "server": "7714",
        "farm": 8,
        "title": "",
        "ispublic": 1,
        "isfriend": 0,
        "isfamily": 0,
        "ownername": "mc_mathys",
        "url_q": "https://farm8.staticflickr.com/7714/17394513521_ec6a7f3d49_q.jpg",
        "height_q": "150",
        "width_q": "150",
        "url_z": "https://farm8.staticflickr.com/7714/17394513521_ec6a7f3d49_z.jpg",
        "height_z": "427",
        "width_z": "640"
      },
      {
        "id": "17394867295",
        "owner": "129913138@N06",
        "secret": "e04dc71219",
        "server": "7737",
        "farm": 8,
        "title": "",
        "ispublic": 1,
        "isfriend": 0,
        "isfamily": 0,
        "ownername": "mc_mathys",
        "url_q": "https://farm8.staticflickr.com/7737/17394867295_e04dc71219_q.jpg",
        "height_q": "150",
        "width_q": "150",
        "url_z": "https://farm8.staticflickr.com/7737/17394867295_e04dc71219_z.jpg",
        "height_z": "427",
        "width_z": "640"
      },
      {
        "id": "16774583303",
        "owner": "129913138@N06",
        "secret": "3e0154f89f",
        "server": "7706",
        "farm": 8,
        "title": "",
        "ispublic": 1,
        "isfriend": 0,
        "isfamily": 0,
        "ownername": "mc_mathys",
        "url_q": "https://farm8.staticflickr.com/7706/16774583303_3e0154f89f_q.jpg",
        "height_q": "150",
        "width_q": "150",
        "url_z": "https://farm8.staticflickr.com/7706/16774583303_3e0154f89f_z.jpg",
        "height_z": "427",
        "width_z": "640"
      },
      {
        "id": "16774560483",
        "owner": "129913138@N06",
        "secret": "09b90dbb46",
        "server": "8757",
        "farm": 9,
        "title": "",
        "ispublic": 1,
        "isfriend": 0,
        "isfamily": 0,
        "ownername": "mc_mathys",
        "url_q": "https://farm9.staticflickr.com/8757/16774560483_09b90dbb46_q.jpg",
        "height_q": "150",
        "width_q": "150",
        "url_z": "https://farm9.staticflickr.com/8757/16774560483_09b90dbb46_z.jpg",
        "height_z": "427",
        "width_z": "640"
      },
      {
        "id": "17394823245",
        "owner": "129913138@N06",
        "secret": "95735340ee",
        "server": "5336",
        "farm": 6,
        "title": "",
        "ispublic": 1,
        "isfriend": 0,
        "isfamily": 0,
        "ownername": "mc_mathys",
        "url_q": "https://farm6.staticflickr.com/5336/17394823245_95735340ee_q.jpg",
        "height_q": "150",
        "width_q": "150",
        "url_z": "https://farm6.staticflickr.com/5336/17394823245_95735340ee_z.jpg",
        "height_z": "427",
        "width_z": "640"
      },
      {
        "id": "17368842006",
        "owner": "129913138@N06",
        "secret": "55f34ed3ed",
        "server": "7687",
        "farm": 8,
        "title": "",
        "ispublic": 1,
        "isfriend": 0,
        "isfamily": 0,
        "ownername": "mc_mathys",
        "url_q": "https://farm8.staticflickr.com/7687/17368842006_55f34ed3ed_q.jpg",
        "height_q": "150",
        "width_q": "150",
        "url_z": "https://farm8.staticflickr.com/7687/17368842006_55f34ed3ed_z.jpg",
        "height_z": "640",
        "width_z": "427"
      },
      {
        "id": "17208589979",
        "owner": "129913138@N06",
        "secret": "275093edf1",
        "server": "7700",
        "farm": 8,
        "title": "",
        "ispublic": 1,
        "isfriend": 0,
        "isfamily": 0,
        "ownername": "mc_mathys",
        "url_q": "https://farm8.staticflickr.com/7700/17208589979_275093edf1_q.jpg",
        "height_q": "150",
        "width_q": "150",
        "url_z": "https://farm8.staticflickr.com/7700/17208589979_275093edf1_z.jpg",
        "height_z": "640",
        "width_z": "427"
      },
      {
        "id": "17392816482",
        "owner": "129913138@N06",
        "secret": "a03640ba18",
        "server": "8711",
        "farm": 9,
        "title": "",
        "ispublic": 1,
        "isfriend": 0,
        "isfamily": 0,
        "ownername": "mc_mathys",
        "url_q": "https://farm9.staticflickr.com/8711/17392816482_a03640ba18_q.jpg",
        "height_q": "150",
        "width_q": "150",
        "url_z": "https://farm9.staticflickr.com/8711/17392816482_a03640ba18_z.jpg",
        "height_z": "427",
        "width_z": "640"
      },
      {
        "id": "17207192580",
        "owner": "129913138@N06",
        "secret": "d44f04a301",
        "server": "5330",
        "farm": 6,
        "title": "",
        "ispublic": 1,
        "isfriend": 0,
        "isfamily": 0,
        "ownername": "mc_mathys",
        "url_q": "https://farm6.staticflickr.com/5330/17207192580_d44f04a301_q.jpg",
        "height_q": "150",
        "width_q": "150",
        "url_z": "https://farm6.staticflickr.com/5330/17207192580_d44f04a301_z.jpg",
        "height_z": "640",
        "width_z": "427"
      },
      {
        "id": "17206956708",
        "owner": "129913138@N06",
        "secret": "3e2a95275c",
        "server": "8701",
        "farm": 9,
        "title": "",
        "ispublic": 1,
        "isfriend": 0,
        "isfamily": 0,
        "ownername": "mc_mathys",
        "url_q": "https://farm9.staticflickr.com/8701/17206956708_3e2a95275c_q.jpg",
        "height_q": "150",
        "width_q": "150",
        "url_z": "https://farm9.staticflickr.com/8701/17206956708_3e2a95275c_z.jpg",
        "height_z": "427",
        "width_z": "640"
      },
      {
        "id": "17394573551",
        "owner": "32668693@N04",
        "secret": "11cde62fdb",
        "server": "7656",
        "farm": 8,
        "title": "2002 - Audi R8",
        "ispublic": 1,
        "isfriend": 0,
        "isfamily": 0,
        "ownername": "Broadcasting to the void. Is anyone out there?",
        "url_q": "https://farm8.staticflickr.com/7656/17394573551_11cde62fdb_q.jpg",
        "height_q": "150",
        "width_q": "150",
        "url_z": "https://farm8.staticflickr.com/7656/17394573551_11cde62fdb_z.jpg",
        "height_z": "490",
        "width_z": "640"
      },
      {
        "id": "16774628983",
        "owner": "90238439@N03",
        "secret": "3897a3687e",
        "server": "8858",
        "farm": 9,
        "title": "Team Novadriver regressa ao International GT Open",
        "ispublic": 1,
        "isfriend": 0,
        "isfamily": 0,
        "ownername": "Nuno Dinis Photos",
        "url_q": "https://farm9.staticflickr.com/8858/16774628983_3897a3687e_q.jpg",
        "height_q": "150",
        "width_q": "150",
        "url_z": "https://farm9.staticflickr.com/8858/16774628983_3897a3687e_z.jpg",
        "height_z": "360",
        "width_z": "640"
      },
      {
        "id": "17392667002",
        "owner": "56702002@N05",
        "secret": "3cf1b4350e",
        "server": "8769",
        "farm": 9,
        "title": "2016 Audi S7 Feature, Engine and Price",
        "ispublic": 1,
        "isfriend": 0,
        "isfamily": 0,
        "ownername": "faza_elh",
        "url_q": "https://farm9.staticflickr.com/8769/17392667002_3cf1b4350e_q.jpg",
        "height_q": "150",
        "width_q": "150",
        "url_z": "https://farm9.staticflickr.com/8769/17392667002_3cf1b4350e_z.jpg",
        "height_z": "480",
        "width_z": "640"
      },
      {
        "id": "17207026910",
        "owner": "45536499@N05",
        "secret": "1b36da62ca",
        "server": "7732",
        "farm": 8,
        "title": "Audi A3 quattro",
        "ispublic": 1,
        "isfriend": 0,
        "isfamily": 0,
        "ownername": "Jack,Shepherd",
        "url_q": "https://farm8.staticflickr.com/7732/17207026910_1b36da62ca_q.jpg",
        "height_q": "150",
        "width_q": "150",
        "url_z": "https://farm8.staticflickr.com/7732/17207026910_1b36da62ca_z.jpg",
        "height_z": "413",
        "width_z": "640"
      },
      {
        "id": "17392542052",
        "owner": "7430965@N05",
        "secret": "1554277801",
        "server": "7707",
        "farm": 8,
        "title": "1989 Audi 80",
        "ispublic": 1,
        "isfriend": 0,
        "isfamily": 0,
        "ownername": "Spottedlaurel",
        "url_q": "https://farm8.staticflickr.com/7707/17392542052_1554277801_q.jpg",
        "height_q": "150",
        "width_q": "150",
        "url_z": "https://farm8.staticflickr.com/7707/17392542052_1554277801_z.jpg",
        "height_z": "435",
        "width_z": "640"
      },
      {
        "id": "17394509675",
        "owner": "127381676@N08",
        "secret": "07b150b728",
        "server": "8729",
        "farm": 9,
        "title": "Audi s5",
        "ispublic": 1,
        "isfriend": 0,
        "isfamily": 0,
        "ownername": "a_allesandro",
        "url_q": "https://farm9.staticflickr.com/8729/17394509675_07b150b728_q.jpg",
        "height_q": "150",
        "width_q": "150",
        "url_z": "https://farm9.staticflickr.com/8729/17394509675_07b150b728_z.jpg",
        "height_z": "480",
        "width_z": "640"
      },
      {
        "id": "17206703648",
        "owner": "78759190@N05",
        "secret": "4be14bff05",
        "server": "7673",
        "farm": 8,
        "title": "Audi 80 in Germany",
        "ispublic": 1,
        "isfriend": 0,
        "isfamily": 0,
        "ownername": "TheCarArchives",
        "url_q": "https://farm8.staticflickr.com/7673/17206703648_4be14bff05_q.jpg",
        "height_q": "150",
        "width_q": "150",
        "url_z": "https://farm8.staticflickr.com/7673/17206703648_4be14bff05_z.jpg",
        "height_z": "359",
        "width_z": "640"
      },
      {
        "id": "17394128441",
        "owner": "26498485@N04",
        "secret": "81dfb4ecbb",
        "server": "8884",
        "farm": 9,
        "title": "Audi RS5 DTM Hockenheim 2015",
        "ispublic": 1,
        "isfriend": 0,
        "isfamily": 0,
        "ownername": "ufrank66",
        "url_q": "https://farm9.staticflickr.com/8884/17394128441_81dfb4ecbb_q.jpg",
        "height_q": "150",
        "width_q": "150",
        "url_z": "https://farm9.staticflickr.com/8884/17394128441_81dfb4ecbb_z.jpg",
        "height_z": "339",
        "width_z": "640"
      },
      {
        "id": "17392504372",
        "owner": "118833986@N06",
        "secret": "b5cfdd1e4a",
        "server": "7704",
        "farm": 8,
        "title": "Lamborghini und als Hintergrund Deko der neue Audi r8 ;-) #lamborghini #audi #vw #volkswagen #r8 #huracan #düsseldorf #köln #königsallee #kö #hockenheim #nürburgring #luxus #deluxe #deutschland #sportwagen #racing #luxusmarke #luxusauto #ps #highspeed",
        "ispublic": 1,
        "isfriend": 0,
        "isfamily": 0,
        "ownername": "wrap-a-car",
        "url_q": "https://farm8.staticflickr.com/7704/17392504372_b5cfdd1e4a_q.jpg",
        "height_q": "150",
        "width_q": "150",
        "url_z": "https://farm8.staticflickr.com/7704/17392504372_b5cfdd1e4a_z.jpg",
        "height_z": "640",
        "width_z": "640"
      },
      {
        "id": "16771892234",
        "owner": "23369004@N02",
        "secret": "f05da095b0",
        "server": "5343",
        "farm": 6,
        "title": "Spring Event 2015",
        "ispublic": 1,
        "isfriend": 0,
        "isfamily": 0,
        "ownername": "Ansho.nl",
        "url_q": "https://farm6.staticflickr.com/5343/16771892234_f05da095b0_q.jpg",
        "height_q": "150",
        "width_q": "150",
        "url_z": "https://farm6.staticflickr.com/5343/16771892234_f05da095b0_z.jpg",
        "height_z": "360",
        "width_z": "640"
      },
      {
        "id": "17206491428",
        "owner": "30976745@N03",
        "secret": "8f1b6fd311",
        "server": "7767",
        "farm": 8,
        "title": "AUDI SPORT TEAM JOEST - Audi R18 e-tron quattro",
        "ispublic": 1,
        "isfriend": 0,
        "isfamily": 0,
        "ownername": "François Boisseau",
        "url_q": "https://farm8.staticflickr.com/7767/17206491428_8f1b6fd311_q.jpg",
        "height_q": "150",
        "width_q": "150",
        "url_z": "https://farm8.staticflickr.com/7767/17206491428_8f1b6fd311_z.jpg",
        "height_z": "400",
        "width_z": "640"
      },
      {
        "id": "17368344616",
        "owner": "122312897@N06",
        "secret": "2a2d3b106f",
        "server": "5469",
        "farm": 6,
        "title": "wec 005.jpg",
        "ispublic": 1,
        "isfriend": 0,
        "isfamily": 0,
        "ownername": "petejdsmith",
        "url_q": "https://farm6.staticflickr.com/5469/17368344616_2a2d3b106f_q.jpg",
        "height_q": "150",
        "width_q": "150",
        "url_z": "https://farm6.staticflickr.com/5469/17368344616_2a2d3b106f_z.jpg",
        "height_z": "426",
        "width_z": "640"
      },
      {
        "id": "17207999569",
        "owner": "66106863@N04",
        "secret": "70af298a5b",
        "server": "8887",
        "farm": 9,
        "title": "#AudiSport",
        "ispublic": 1,
        "isfriend": 0,
        "isfamily": 0,
        "ownername": "Ryan Lasher",
        "url_q": "https://farm9.staticflickr.com/8887/17207999569_70af298a5b_q.jpg",
        "height_q": "150",
        "width_q": "150",
        "url_z": "https://farm9.staticflickr.com/8887/17207999569_70af298a5b_z.jpg",
        "height_z": "427",
        "width_z": "640"
      },
      {
        "id": "16771676344",
        "owner": "131690641@N06",
        "secret": "53e710ca90",
        "server": "8758",
        "farm": 9,
        "title": "audi-rs3-sportback-8v-c810406052015195849_1",
        "ispublic": 1,
        "isfriend": 0,
        "isfamily": 0,
        "ownername": "mix.1984",
        "url_q": "https://farm9.staticflickr.com/8758/16771676344_53e710ca90_q.jpg",
        "height_q": "150",
        "width_q": "150",
        "url_z": "https://farm9.staticflickr.com/8758/16771676344_53e710ca90_z.jpg",
        "height_z": "426",
        "width_z": "640"
      },
      {
        "id": "16773916373",
        "owner": "131690641@N06",
        "secret": "766f7d9e81",
        "server": "8707",
        "farm": 9,
        "title": "audi-rs4-avant-b8-c837906052015210441_1",
        "ispublic": 1,
        "isfriend": 0,
        "isfamily": 0,
        "ownername": "mix.1984",
        "url_q": "https://farm9.staticflickr.com/8707/16773916373_766f7d9e81_q.jpg",
        "height_q": "150",
        "width_q": "150",
        "url_z": "https://farm9.staticflickr.com/8707/16773916373_766f7d9e81_z.jpg",
        "height_z": "432",
        "width_z": "640"
      }
    ]
  }
}